…
``` r
Vidsync_TestMeasurements
```

    ## # A tibble: 40 x 4
    ##    Site     Event  Test_Type    Percent_Accuracy
    ##    <chr>    <chr>  <chr>                   <dbl>
    ##  1 RoachRun Before horizontal_1             99.8
    ##  2 RoachRun Before horizontal_2             99.6
    ##  3 RoachRun Before vertical_1               99.6
    ##  4 RoachRun Before vertical_2               98.9
    ##  5 RoachRun Before depth                    96.6
    ##  6 RoachRun After  horizontal_1            100  
    ##  7 RoachRun After  horizontal_2             99.9
    ##  8 RoachRun After  vertical_1               99.6
    ##  9 RoachRun After  vertical_2               99.7
    ## 10 RoachRun After  depth                    95  
    ## # ... with 30 more rows
…
nnd_data <- 
  bind_rows(nnd_RoachRun_Pre, nnd_RoachRun_Post, nnd_GolfBall_Pre, nnd_GolfBall_Post, nnd_HalfTire_Pre, nnd_HalfTire_Post, nnd_JesusToast_Pre, nnd_JesusToast_Post) %>%
  select(date, BACI_date, sample_event, site, subsample, index, mean_nnd, median_nnd)
nnd_data
```

    ## # A tibble: 77 x 8
    ## # Groups:   subsample [6]
    ##    date       BACI_date  sample_event site  subsample index mean_nnd
    ##    <date>     <date>     <chr>        <chr>     <dbl> <dbl>    <dbl>
    ##  1 2018-06-29 2018-06-29 Before       18.5          1     1   0.0725
    ##  2 2018-06-29 2018-06-29 Before       18.5          1     2  39.1   
    ##  3 2018-06-29 2018-06-29 Before       18.5          2     6  63.9   
    ##  4 2018-06-29 2018-06-29 Before       18.5          3     9  43.2   
    ##  5 2018-06-29 2018-06-29 Before       18.5          3    10  69.5   
    ##  6 2018-06-29 2018-06-29 Before       18.5          4    12  84.6   
    ##  7 2018-06-29 2018-06-29 Before       18.5          5    15  37.8   
    ##  8 2018-06-29 2018-06-29 Before       18.5          6    18  41.4   
    ##  9 2018-06-29 2018-06-29 Before       18.5          6    19  32.0   
    ## 10 2018-07-05 2018-07-05 After        18.5          1     3   3.77  
    ## # ... with 67 more rows, and 1 more variable: median_nnd <dbl>
…
MovementPerTime_Data <-
bind_rows(RoachRun_DistPerTime_Pre, RoachRun_DistPerTime_Post, GolfBall_DistPerTime_Pre, GolfBall_DistPerTime_Post, HalfTire_DistPerTime_Pre, HalfTire_DistPerTime_Post, JesusToast_DistPerTime_Pre, JesusToast_DistPerTime_Post) %>%
  select(date, BACI_date, sample_event, site, species, subsample, index, DistPerTime_Median, DistPerTime_Mean)
MovementPerTime_Data
```

    ## # A tibble: 148 x 9
    ## # Groups:   index [47]
    ##    date       BACI_date  sample_event site  species subsample index
    ##    <date>     <date>     <chr>        <chr> <chr>       <dbl> <dbl>
    ##  1 2018-06-29 2018-06-29 Before       18.5  Omykiss         1     1
    ##  2 2018-06-29 2018-06-29 Before       18.5  Omykiss         1     2
    ##  3 2018-06-29 2018-06-29 Before       18.5  Omykiss         1     4
    ##  4 2018-06-29 2018-06-29 Before       18.5  Omykiss         2     5
    ##  5 2018-06-29 2018-06-29 Before       18.5  Omykiss         2     6
    ##  6 2018-06-29 2018-06-29 Before       18.5  Omykiss         2     7
    ##  7 2018-06-29 2018-06-29 Before       18.5  Omykiss         3     8
    ##  8 2018-06-29 2018-06-29 Before       18.5  Omykiss         3     9
    ##  9 2018-06-29 2018-06-29 Before       18.5  Okisut…         3    10
    ## 10 2018-06-29 2018-06-29 Before       18.5  Omykiss         4    11
    ## # ... with 138 more rows, and 2 more variables: DistPerTime_Median <dbl>,
    ## #   DistPerTime_Mean <dbl>
…
  filter(grepl("^Subsample.*", objects)) %>% 
  filter(!grepl("^Length.*", event)) %>% 
   mutate(species = str_extract(objects, "Omykiss|Okisutch")) %>%
  mutate(subsample = as.numeric(str_extract(objects, "\\d"))) %>% 
  mutate(index = as.numeric(str_extract(objects, "\\h\\d{1,2}"))) %>% 
  mutate(one_col = 1) %>% 
  arrange(site, sample_event, subsample, time) %>% 
  group_by(sample_event, site, time) %>% 
  mutate(max_time_tally = sum(one_col)) %>%
  distinct(time, .keep_all = TRUE) %>%
  select(date, BACI_date, site, sample_event, species, subsample, index, time, max_time_tally)
Max_Fish_Tally_Dataset
```

    ## # A tibble: 492 x 9
    ## # Groups:   sample_event, site, time [492]
    ##    date       BACI_date  site  sample_event species subsample index  time
    ##    <date>     <date>     <chr> <chr>        <chr>       <dbl> <dbl> <dbl>
    ##  1 2018-07-06 2018-07-05 18.2  After        Omykiss         1     1   450
    ##  2 2018-07-06 2018-07-05 18.2  After        Omykiss         1     1   453
    ##  3 2018-07-06 2018-07-05 18.2  After        Omykiss         1     1   456
    ##  4 2018-07-06 2018-07-05 18.2  After        Omykiss         1     2   459
    ##  5 2018-07-06 2018-07-05 18.2  After        Omykiss         1     2   462
    ##  6 2018-07-06 2018-07-05 18.2  After        Omykiss         1     2   465
    ##  7 2018-07-06 2018-07-05 18.2  After        Omykiss         1     2   468
    ##  8 2018-07-06 2018-07-05 18.2  After        Omykiss         1     2   471
    ##  9 2018-07-06 2018-07-05 18.2  After        Omykiss         1     4   474
    ## 10 2018-07-06 2018-07-05 18.2  After        Omykiss         1     4   480
    ## # ... with 482 more rows, and 1 more variable: max_time_tally <dbl>
…
``` r
SRF_Volume_Dataset <- 
  readr::read_csv(file = "Vidsync-data/BACI Fish Volume Data - SRF-Volumes.csv",
                  col_names = TRUE,
                  col_types = "ccccDcdddddddddddc") %>% 
  setnames(old = "event", new = "sample_event") %>% 
  setnames(old = "pool", new = "site") %>%
  setnames(old = "fish_species", new = "species") %>%
  select(stream, reach, date, sample_event, site, species, subsample, index, fish_length_mm, num_fish_in_subsample, volume_occupied_all_cm3, volume_occupied_forage_cm3, points_in_sample, repeat_index) %>% 
  filter(!species == "Hsymmetricus")
SRF_Volume_Dataset
```

    ## # A tibble: 145 x 14
    ##    stream reach date       sample_event site  species subsample index
    ##    <chr>  <chr> <date>     <chr>        <chr> <chr>       <dbl> <dbl>
    ##  1 Porter BACI  2018-06-29 Before       18.5  Omykiss         1     1
    ##  2 Porter BACI  2018-06-29 Before       18.5  Omykiss         1     2
    ##  3 Porter BACI  2018-06-29 Before       18.5  Omykiss         1     4
    ##  4 Porter BACI  2018-06-29 Before       18.5  Omykiss         2     5
    ##  5 Porter BACI  2018-06-29 Before       18.5  Omykiss         2     6
    ##  6 Porter BACI  2018-06-29 Before       18.5  Omykiss         2     7
    ##  7 Porter BACI  2018-06-29 Before       18.5  Omykiss         3     8
    ##  8 Porter BACI  2018-06-29 Before       18.5  Omykiss         3     9
    ##  9 Porter BACI  2018-06-29 Before       18.5  Okisut…         3    10
    ## 10 Porter BACI  2018-06-29 Before       18.5  Omykiss         4    11
    ## # ... with 135 more rows, and 6 more variables: fish_length_mm <dbl>,
    ## #   num_fish_in_subsample <dbl>, volume_occupied_all_cm3 <dbl>,
    ## #   volume_occupied_forage_cm3 <dbl>, points_in_sample <dbl>,
    ## #   repeat_index <dbl>
…
  left_join(nnd_data, by = c("date", "BACI_date", "site", "sample_event", "subsample", "index")) %>% 
  select(date, BACI_date, sample_event, site, species, subsample, index, time, Behaviors, max_time_tally, DistPerTime_Median, DistPerTime_Mean, mean_nnd, median_nnd, fish_length_mm, num_fish_in_subsample, volume_occupied_all_cm3, volume_occupied_forage_cm3, points_in_sample, repeat_index) %>% 
  arrange(BACI_date, sample_event, site, subsample, index, time) %>% 
  group_by(sample_event, site, subsample) %>% 
  mutate(Total_Volume_Occupied = sum(base::unique(volume_occupied_all_cm3), na.rm = TRUE)) %>% 
  mutate(Total_Forage_Volume_Occupied = sum(base::unique(volume_occupied_forage_cm3), na.rm = TRUE)) %>% 
  ungroup() %>% 
  group_by(sample_event, site) %>% 
  mutate(Mean_Total_Volume_Occupied_cm3 = mean(base::unique(Total_Volume_Occupied))) %>% 
  mutate(Mean_Total_Forage_Volume_Occupied_cm3 = mean(base::unique(Total_Forage_Volume_Occupied))) %>%
  select(date, BACI_date, sample_event, site, species, subsample, index, num_fish_in_subsample, time, Behaviors, max_time_tally, DistPerTime_Median, DistPerTime_Mean, mean_nnd, median_nnd, fish_length_mm, volume_occupied_all_cm3, volume_occupied_forage_cm3, Mean_Total_Volume_Occupied_cm3, Mean_Total_Forage_Volume_Occupied_cm3, points_in_sample, repeat_index)
Fish_Dataset
```

    ## # A tibble: 1,205 x 22
    ## # Groups:   sample_event, site [8]
    ##    date       BACI_date  sample_event site  species subsample index
    ##    <date>     <date>     <chr>        <chr> <chr>       <dbl> <dbl>
    ##  1 2018-06-30 2018-06-29 Before       18.2  Omykiss         1     1
    ##  2 2018-06-30 2018-06-29 Before       18.2  Omykiss         1     1
    ##  3 2018-06-30 2018-06-29 Before       18.2  Omykiss         1     1
    ##  4 2018-06-30 2018-06-29 Before       18.2  Omykiss         1     1
    ##  5 2018-06-30 2018-06-29 Before       18.2  Omykiss         1     1
    ##  6 2018-06-30 2018-06-29 Before       18.2  Omykiss         1     1
    ##  7 2018-06-30 2018-06-29 Before       18.2  Omykiss         1     1
    ##  8 2018-06-30 2018-06-29 Before       18.2  Omykiss         1     5
    ##  9 2018-06-30 2018-06-29 Before       18.2  Omykiss         1     5
    ## 10 2018-06-30 2018-06-29 Before       18.2  Omykiss         1     5
    ## # ... with 1,195 more rows, and 15 more variables:
    ## #   num_fish_in_subsample <dbl>, time <dbl>, Behaviors <chr>,
    ## #   max_time_tally <dbl>, DistPerTime_Median <dbl>,
    ## #   DistPerTime_Mean <dbl>, mean_nnd <dbl>, median_nnd <dbl>,
    ## #   fish_length_mm <dbl>, volume_occupied_all_cm3 <dbl>,
    ## #   volume_occupied_forage_cm3 <dbl>,
    ## #   Mean_Total_Volume_Occupied_cm3 <dbl>,
    ## #   Mean_Total_Forage_Volume_Occupied_cm3 <dbl>, points_in_sample <dbl>,
    ## #   repeat_index <dbl>
…
  left_join(Flow_Dataset, by = c("SampleDate" = "Date")) %>% 
  left_join(Augmentation_Dataset, by = c("SampleDate" = "Date")) %>% 
  left_join(DO_Dataset_Control, by = c("SampleDate" = "Date")) %>% 
  left_join(DO_Dataset_Impacted, by = c("SampleDate" = "Date")) %>%
  filter(!Streamflow_gpm == "NA") %>% 
  filter(!Augmentation_gpm == "NA") %>% 
  filter(!DO_Control_mg_L == "NA") %>% 
  filter(!DO_Impacted_mg_L == "NA") %>% 
  mutate(Streamflow_cfs = Streamflow_gpm/448.83) %>% 
  mutate(Augmentation_cfs = Augmentation_gpm/448.83) %>% 
  setnames(old = "SampleDate", new = "Date")
Hydrology_Dataset
```

    ## # A tibble: 131 x 11
    ##    Date       RCT_RR RCT_BB RCT_HT Streamflow_cfs Streamflow_gpm
    ##    <date>      <dbl>  <dbl>  <dbl>          <dbl>          <dbl>
    ##  1 2018-04-27   16.6   15.9   17.1           2.69          1208.
    ##  2 2018-04-28   16.2   15.6   16.8           2.60          1167.
    ##  3 2018-04-29   15.8   15.3   16.4           2.44          1094.
    ##  4 2018-04-30   15.3   14.9   16.0           2.30          1033.
    ##  5 2018-05-01   14.9   14.6   15.6           2.17           975.
    ##  6 2018-05-02   14.4   14.2   15.2           2.05           919.
    ##  7 2018-05-03   14.1   13.9   14.9           1.94           871.
    ##  8 2018-05-04   13.8   13.7   14.6           1.86           835.
    ##  9 2018-05-05   13.4   13.4   14.3           1.75           784.
    ## 10 2018-05-06   13.1   13.1   14.0           1.66           744.
    ## # ... with 121 more rows, and 5 more variables: WaterTemp_C <dbl>,
    ## #   Augmentation_gpm <dbl>, DO_Control_mg_L <dbl>, DO_Impacted_mg_L <dbl>,
    ## #   Augmentation_cfs <dbl>
…
Final SRF Dataset
=================

``` r
Final_SRF_Dataset <- Fish_Dataset %>% 
  left_join(Hydrology_Dataset, by = c("date" = "Date"))
Final_SRF_Dataset
```

    ## # A tibble: 1,205 x 32
    ## # Groups:   sample_event, site [?]
    ##    date       BACI_date  sample_event site  species subsample index
    ##    <date>     <date>     <chr>        <chr> <chr>       <dbl> <dbl>
    ##  1 2018-06-30 2018-06-29 Before       18.2  Omykiss         1     1
    ##  2 2018-06-30 2018-06-29 Before       18.2  Omykiss         1     1
    ##  3 2018-06-30 2018-06-29 Before       18.2  Omykiss         1     1
    ##  4 2018-06-30 2018-06-29 Before       18.2  Omykiss         1     1
    ##  5 2018-06-30 2018-06-29 Before       18.2  Omykiss         1     1
    ##  6 2018-06-30 2018-06-29 Before       18.2  Omykiss         1     1
    ##  7 2018-06-30 2018-06-29 Before       18.2  Omykiss         1     1
    ##  8 2018-06-30 2018-06-29 Before       18.2  Omykiss         1     5
    ##  9 2018-06-30 2018-06-29 Before       18.2  Omykiss         1     5
    ## 10 2018-06-30 2018-06-29 Before       18.2  Omykiss         1     5
    ## # ... with 1,195 more rows, and 25 more variables:
    ## #   num_fish_in_subsample <dbl>, time <dbl>, Behaviors <chr>,
    ## #   max_time_tally <dbl>, DistPerTime_Median <dbl>,
    ## #   DistPerTime_Mean <dbl>, mean_nnd <dbl>, median_nnd <dbl>,
    ## #   fish_length_mm <dbl>, volume_occupied_all_cm3 <dbl>,
    ## #   volume_occupied_forage_cm3 <dbl>,
    ## #   Mean_Total_Volume_Occupied_cm3 <dbl>,
    ## #   Mean_Total_Forage_Volume_Occupied_cm3 <dbl>, points_in_sample <dbl>,
    ## #   repeat_index <dbl>, RCT_RR <dbl>, RCT_BB <dbl>, RCT_HT <dbl>,
…
